<svg width="119" height="119" viewBox="0 0 119 119" fill="none" xmlns="http://www.w3.org/2000/svg">
<path d="M59.6416 118.777C92.4243 118.777 119 92.201 119 59.4183C119 26.6355 92.4243 0.0598755 59.6416 0.0598755C26.8589 0.0598755 0.283203 26.6355 0.283203 59.4183C0.283203 92.201 26.8589 118.777 59.6416 118.777Z" fill="#006EFF"/>
<path d="M49.1512 48.6134H48.1636V43.0825C48.1636 40.0125 49.3831 37.0683 51.5539 34.8975C53.7247 32.7267 56.669 31.5071 59.739 31.5071C62.8089 31.5071 65.7532 32.7267 67.924 34.8975C70.0948 37.0683 71.3143 40.0125 71.3143 43.0825V47.5862H70.3267V43.0825C70.3267 40.2745 69.2112 37.5815 67.2256 35.5959C65.24 33.6103 62.547 32.4948 59.739 32.4948C56.9309 32.4948 54.2379 33.6103 52.2523 35.5959C50.2667 37.5815 49.1512 40.2745 49.1512 43.0825V48.6134Z" fill="white"/>
<path d="M74.3574 87.3297H44.9252C43.6328 87.3245 42.3948 86.8088 41.4809 85.8949C40.567 84.981 40.0513 83.743 40.0461 82.4506V52.9986C40.0513 51.7062 40.567 50.4682 41.4809 49.5543C42.3948 48.6405 43.6328 48.1248 44.9252 48.1196H74.3574C75.6498 48.1248 76.8878 48.6405 77.8017 49.5543C78.7156 50.4682 79.2313 51.7062 79.2365 52.9986V82.4506C79.2313 83.743 78.7156 84.981 77.8017 85.8949C76.8878 86.8088 75.6498 87.3245 74.3574 87.3297ZM44.9252 49.1072C43.8774 49.1072 42.8725 49.5235 42.1317 50.2643C41.3908 51.0052 40.9745 52.0101 40.9745 53.0579V82.5099C40.9745 83.5577 41.3908 84.5625 42.1317 85.3034C42.8725 86.0443 43.8774 86.4605 44.9252 86.4605H74.3574C75.4052 86.4605 76.4101 86.0443 77.151 85.3034C77.8919 84.5625 78.3081 83.5577 78.3081 82.5099V52.9986C78.3081 51.9508 77.8919 50.946 77.151 50.2051C76.4101 49.4642 75.4052 49.048 74.3574 49.048L44.9252 49.1072Z" fill="white"/>
<path d="M59.779 68.6826C58.8648 68.6826 57.9711 68.4115 57.211 67.9036C56.4509 67.3957 55.8584 66.6738 55.5086 65.8292C55.1587 64.9846 55.0672 64.0552 55.2456 63.1586C55.4239 62.262 55.8641 61.4384 56.5106 60.7919C57.157 60.1455 57.9806 59.7053 58.8772 59.5269C59.7739 59.3486 60.7032 59.4401 61.5479 59.7899C62.3925 60.1398 63.1143 60.7322 63.6222 61.4924C64.1301 62.2525 64.4012 63.1462 64.4012 64.0603C64.4012 65.2862 63.9143 66.4619 63.0474 67.3288C62.1806 68.1956 61.0049 68.6826 59.779 68.6826ZM59.779 60.4455C59.0593 60.4455 58.3558 60.6592 57.7577 61.0595C57.1596 61.4597 56.6937 62.0285 56.4192 62.6938C56.1447 63.3591 56.0739 64.0909 56.2158 64.7965C56.3576 65.5021 56.7057 66.1496 57.216 66.6571C57.7263 67.1647 58.3758 67.5092 59.0821 67.6472C59.7884 67.7853 60.5198 67.7105 61.1836 67.4323C61.8474 67.1542 62.4137 66.6853 62.8107 66.085C63.2077 65.4847 63.4175 64.78 63.4136 64.0603C63.4214 63.5781 63.3332 63.0991 63.1541 62.6513C62.975 62.2034 62.7085 61.7957 62.3702 61.4519C62.0319 61.1081 61.6286 60.8351 61.1837 60.6487C60.7388 60.4624 60.2613 60.3664 59.779 60.3665V60.4455Z" fill="white"/>
<path d="M60.1344 67.9914H59.1467V76.3272H60.1344V67.9914Z" fill="white"/>
</svg>
