<svg width="45" height="46" viewBox="0 0 45 46" fill="none" xmlns="http://www.w3.org/2000/svg">
<rect y="22.9999" width="31.1543" height="31.1543" rx="15.5772" transform="rotate(-45 0 22.9999)" fill="#1F7FFD"/>
<g filter="url(#filter0_i_374_1223)">
<rect x="6.41406" y="22.9999" width="22.0835" height="22.0835" rx="11.0417" transform="rotate(-45 6.41406 22.9999)" fill="white"/>
</g>
<path d="M21.5861 25.5095V19.5095H20.6161V18.2195H23.0261V25.5095H21.5861Z" fill="black"/>
<defs>
<filter id="filter0_i_374_1223" x="10.9877" y="11.9582" width="22.0835" height="26.0835" filterUnits="userSpaceOnUse" color-interpolation-filters="sRGB">
<feFlood flood-opacity="0" result="BackgroundImageFix"/>
<feBlend mode="normal" in="SourceGraphic" in2="BackgroundImageFix" result="shape"/>
<feColorMatrix in="SourceAlpha" type="matrix" values="0 0 0 0 0 0 0 0 0 0 0 0 0 0 0 0 0 0 127 0" result="hardAlpha"/>
<feOffset dy="4"/>
<feGaussianBlur stdDeviation="2"/>
<feComposite in2="hardAlpha" operator="arithmetic" k2="-1" k3="1"/>
<feColorMatrix type="matrix" values="0 0 0 0 0 0 0 0 0 0 0 0 0 0 0 0 0 0 0.25 0"/>
<feBlend mode="normal" in2="shape" result="effect1_innerShadow_374_1223"/>
</filter>
</defs>
</svg>
